module work/currency

go 1.15

require (
	github.com/gin-gonic/gin v1.6.3
	github.com/go-playground/validator/v10 v10.4.1 // indirect
	github.com/golang/protobuf v1.4.3 // indirect
	github.com/jmoiron/sqlx v1.2.0
	github.com/json-iterator/go v1.1.10 // indirect
	github.com/lib/pq v1.8.0
	github.com/modern-go/concurrent v0.0.0-20180306012644-bacd9c7ef1dd // indirect
	github.com/modern-go/reflect2 v1.0.1 // indirect
	github.com/ugorji/go v1.2.0 // indirect
	golang.org/x/crypto v0.0.0-20201117144127-c1f2f97bffc9 // indirect
	golang.org/x/sys v0.0.0-20201119102817-f84b799fce68 // indirect
	google.golang.org/protobuf v1.25.0 // indirect
	gopkg.in/yaml.v2 v2.3.0 // indirect
)
